{
  "hosting": {
    "public": "dist",
    "ignore": [
      "firebase.json",
      "**/.*",
      "**/node_modules/**"
    ],
    "rewrites": [
      {
        "source": "**",
        "destination": "/index.html"
      },
      {
        "source": "/.git/**",
        "destination": "/not-found"
      },
      {
        "source": "/.env/**",
        "destination": "/not-found"
      },
      {
        "source": "/package.json/**",
        "destination": "/not-found"
      }
    ]
  }
}
