<svg width="115" height="29" viewBox="0 0 115 29" fill="none" xmlns="http://www.w3.org/2000/svg">
<path d="M102.338 9.93534C102.256 9.76974 102.221 9.59724 102.235 9.41785C102.263 9.23845 102.414 9.05906 102.69 8.87966C103.008 8.65887 103.339 8.43807 103.684 8.21728C104.029 7.99648 104.408 7.80329 104.822 7.63769C105.25 7.4583 105.726 7.3203 106.251 7.2237C106.775 7.1133 107.375 7.05811 108.051 7.05811C108.921 7.05811 109.735 7.2099 110.494 7.51349C111.267 7.80329 111.936 8.21728 112.502 8.75546C113.081 9.29365 113.537 9.94224 113.868 10.7012C114.199 11.4464 114.365 12.2675 114.365 13.1645V23.1002C114.365 23.873 114.254 24.5561 114.034 25.1495C113.827 25.7291 113.544 26.2396 113.185 26.6812C112.826 27.1228 112.419 27.4954 111.964 27.799C111.522 28.0888 111.06 28.3234 110.577 28.5028C110.108 28.6822 109.645 28.8064 109.19 28.8754C108.748 28.9582 108.355 28.9996 108.01 28.9996C107.279 28.9996 106.52 28.8754 105.733 28.627C104.947 28.3924 104.229 28.0198 103.58 27.5092C102.946 26.9848 102.421 26.3155 102.007 25.5014C101.593 24.6872 101.386 23.7074 101.386 22.562V22.0652C101.386 21.0303 101.552 20.1195 101.883 19.3329C102.214 18.5325 102.67 17.8701 103.249 17.3458C103.829 16.8076 104.512 16.4074 105.298 16.1452C106.085 15.8692 106.934 15.7381 107.844 15.7519H110.639V13.4336C110.639 13.1024 110.577 12.7436 110.453 12.3572C110.342 11.9708 110.163 11.612 109.914 11.2808C109.666 10.9496 109.342 10.6736 108.942 10.4528C108.541 10.232 108.058 10.1216 107.493 10.1216C106.596 10.1216 105.871 10.2665 105.319 10.5563C104.781 10.8323 104.312 11.1428 103.912 11.4878C103.76 11.5982 103.601 11.6672 103.435 11.6948C103.27 11.7086 103.132 11.6189 103.021 11.4257L102.338 9.93534ZM110.639 18.4842H109.004C108.258 18.4842 107.637 18.5808 107.141 18.774C106.644 18.9672 106.244 19.2294 105.94 19.5606C105.65 19.8918 105.443 20.2782 105.319 20.7198C105.195 21.1476 105.133 21.603 105.133 22.0859V22.4999C105.133 23.0795 105.223 23.5763 105.402 23.9903C105.595 24.3905 105.837 24.7217 106.126 24.9839C106.416 25.2323 106.727 25.4186 107.058 25.5428C107.403 25.6532 107.727 25.7084 108.031 25.7084C108.307 25.7084 108.597 25.6601 108.9 25.5635C109.218 25.4669 109.5 25.3082 109.749 25.0874C110.011 24.8666 110.225 24.5837 110.391 24.2387C110.556 23.8799 110.639 23.4452 110.639 22.9346V18.4842Z" fill="white"/>
<path d="M93.0648 0.662384C93.0648 0.469189 93.1131 0.310492 93.2097 0.186295C93.3201 0.0620985 93.4719 0 93.6651 0H96.1904C96.3836 0 96.5285 0.0620985 96.6251 0.186295C96.7355 0.310492 96.7907 0.469189 96.7907 0.662384V23.3283C96.7907 23.9217 96.9356 24.3909 97.2254 24.7359C97.5152 25.0809 98.012 25.2534 98.7158 25.2534H99.2954C99.5576 25.2534 99.7163 25.3362 99.7715 25.5018C99.8267 25.6536 99.8543 25.7847 99.8543 25.8951V28.0271C99.8543 28.0961 99.8474 28.1651 99.8336 28.2341C99.8198 28.3031 99.7784 28.3652 99.7094 28.4204C99.6542 28.4756 99.5645 28.5239 99.4403 28.5653C99.3161 28.6067 99.1505 28.6274 98.9435 28.6274H97.7843C97.0943 28.6274 96.4595 28.5377 95.88 28.3583C95.3004 28.1789 94.8036 27.8891 94.3896 27.4889C93.9756 27.0887 93.6513 26.5644 93.4167 25.9158C93.1821 25.2672 93.0648 24.4668 93.0648 23.5146V0.662384Z" fill="white"/>
<path d="M77.9337 12.8954C77.9337 12.095 78.0993 11.3429 78.4305 10.6391C78.7617 9.92154 79.2102 9.30055 79.776 8.77616C80.3556 8.23798 81.0317 7.81709 81.8045 7.51349C82.5773 7.2099 83.3984 7.05811 84.2678 7.05811C85.1509 7.05811 85.9651 7.2099 86.7103 7.51349C87.4555 7.81709 88.0972 8.23798 88.6354 8.77616C89.1735 9.30055 89.5875 9.92154 89.8773 10.6391C90.1809 11.3429 90.3327 12.095 90.3327 12.8954V18.1116C90.3327 18.3048 90.2706 18.4635 90.1464 18.5877C90.036 18.6981 89.8842 18.7533 89.691 18.7533H81.6596V23.1623C81.6596 23.5073 81.7286 23.8385 81.8666 24.1559C82.0046 24.4733 82.1909 24.7493 82.4255 24.9839C82.6739 25.2185 82.9568 25.4117 83.2742 25.5635C83.6054 25.7015 83.9642 25.7705 84.3506 25.7705C84.737 25.7705 85.0888 25.7015 85.4062 25.5635C85.7236 25.4117 85.9927 25.2116 86.2135 24.9632C86.4343 24.7148 86.6068 24.4319 86.731 24.1145C86.8552 23.7971 86.9173 23.4659 86.9173 23.1209V22.3757C86.9173 22.2101 86.9656 22.0859 87.0622 22.0031C87.1726 21.9203 87.3037 21.8789 87.4555 21.8789H89.8152C89.9394 21.8789 90.0498 21.9134 90.1464 21.9824C90.243 22.0376 90.2913 22.1825 90.2913 22.4171V23.1623C90.2913 23.9765 90.1395 24.7355 89.8359 25.4393C89.5461 26.143 89.139 26.764 88.6147 27.3022C88.0903 27.8266 87.4555 28.2406 86.7103 28.5442C85.9651 28.8478 85.1509 28.9996 84.2678 28.9996C83.3984 28.9996 82.5773 28.8478 81.8045 28.5442C81.0317 28.2406 80.3556 27.8266 79.776 27.3022C79.2102 26.764 78.7617 26.143 78.4305 25.4393C78.0993 24.7355 77.9337 23.9765 77.9337 23.1623V12.8954ZM81.6596 16.1245H86.9173V12.9161C86.9173 12.5711 86.8552 12.2399 86.731 11.9225C86.6068 11.5913 86.4274 11.3084 86.1928 11.0738C85.972 10.8392 85.7029 10.6529 85.3855 10.5149C85.0681 10.3631 84.7232 10.2872 84.3506 10.2872C83.9642 10.2872 83.6054 10.3631 83.2742 10.5149C82.9568 10.6529 82.6739 10.8392 82.4255 11.0738C82.1909 11.3084 82.0046 11.5913 81.8666 11.9225C81.7286 12.2399 81.6596 12.5711 81.6596 12.9161V16.1245Z" fill="white"/>
<path d="M71.4133 13.1024C71.4133 12.7436 71.3512 12.3986 71.227 12.0674C71.1166 11.7362 70.951 11.4464 70.7302 11.198C70.5094 10.9358 70.2334 10.7288 69.9022 10.577C69.571 10.4252 69.1984 10.3493 68.7844 10.3493C68.3981 10.3493 68.0393 10.4183 67.7081 10.5563C67.3907 10.6943 67.1147 10.8875 66.8801 11.1359C66.6593 11.3705 66.4799 11.6534 66.3419 11.9846C66.2177 12.302 66.1487 12.647 66.1349 13.0196V27.9646C66.1349 28.1716 66.0797 28.3372 65.9693 28.4614C65.8727 28.5718 65.7485 28.627 65.5967 28.627H62.9679C62.8299 28.627 62.6988 28.5718 62.5746 28.4614C62.4642 28.3372 62.409 28.1716 62.409 27.9646V13.0196C62.409 12.2192 62.5608 11.4602 62.8644 10.7426C63.1818 10.025 63.6165 9.39715 64.1685 8.85896C64.7342 8.30698 65.3966 7.87229 66.1556 7.55489C66.9284 7.2237 67.7702 7.05811 68.6809 7.05811C69.7021 7.05811 70.6129 7.2168 71.4133 7.53419C72.2137 7.85159 72.8898 8.27938 73.4418 8.81756C73.9938 9.35575 74.4147 9.99054 74.7045 10.7219C74.9943 11.4395 75.1392 12.2054 75.1392 13.0196V27.9853C75.1392 28.1923 75.0771 28.351 74.9529 28.4614C74.8425 28.5718 74.7183 28.627 74.5803 28.627H71.9722C71.8204 28.627 71.6893 28.5718 71.5789 28.4614C71.4685 28.351 71.4133 28.1923 71.4133 27.9853V13.1024Z" fill="white"/>
<path d="M55.5576 8.01074C55.5576 7.85894 55.6128 7.72785 55.7232 7.61745C55.8335 7.49325 55.9853 7.43115 56.1785 7.43115H58.6211C58.8143 7.43115 58.973 7.49325 59.0972 7.61745C59.2352 7.74164 59.3042 7.87274 59.3042 8.01074V27.9858C59.3042 28.4135 59.0765 28.6274 58.6211 28.6274H56.1785C55.7646 28.6274 55.5576 28.4135 55.5576 27.9858V8.01074Z" fill="white"/>
<path d="M50.1135 7.43117H52.6802C52.8182 7.43117 52.9355 7.48637 53.0321 7.59677C53.1425 7.69336 53.1977 7.85206 53.1977 8.07285V10.0807C53.1977 10.2739 53.1425 10.4395 53.0321 10.5775C52.9355 10.7017 52.7975 10.7638 52.6181 10.7638H50.1135V23.3284C50.1135 23.9218 50.2584 24.391 50.5482 24.736C50.838 25.0809 51.3348 25.2534 52.0385 25.2534H52.6181C52.8803 25.2534 53.039 25.3362 53.0942 25.5018C53.1494 25.6536 53.177 25.7847 53.177 25.8951V28.0272C53.177 28.0962 53.1701 28.1652 53.1563 28.2342C53.1425 28.3032 53.1011 28.3653 53.0321 28.4205C52.9769 28.4757 52.8872 28.524 52.763 28.5654C52.6388 28.6068 52.4732 28.6275 52.2662 28.6275H51.1071C50.4171 28.6275 49.7823 28.5378 49.2027 28.3584C48.6231 28.179 48.1263 27.8892 47.7123 27.489C47.2984 27.0888 46.9741 26.5644 46.7395 25.9158C46.5049 25.2672 46.3876 24.4669 46.3876 23.5147V10.7638H44.8765C44.7661 10.7638 44.6419 10.7086 44.5039 10.5982C44.3797 10.474 44.3176 10.3015 44.3176 10.0807V8.09355C44.3176 7.85896 44.3797 7.69336 44.5039 7.59677C44.6419 7.48637 44.7661 7.43117 44.8765 7.43117H46.3876V4.09855C46.3876 3.67076 46.567 3.42927 46.9258 3.37407L49.4304 2.62889C49.6236 2.60129 49.7823 2.64268 49.9065 2.75308C50.0445 2.86348 50.1135 3.03598 50.1135 3.27057V7.43117Z" fill="white"/>
<path d="M38.7495 13.1024C38.7495 12.7436 38.6874 12.3986 38.5632 12.0674C38.4528 11.7362 38.2872 11.4464 38.0664 11.198C37.8456 10.9358 37.5696 10.7288 37.2385 10.577C36.9073 10.4252 36.5347 10.3493 36.1207 10.3493C35.7343 10.3493 35.3755 10.4183 35.0443 10.5563C34.7269 10.6943 34.4509 10.8875 34.2163 11.1359C33.9955 11.3705 33.8161 11.6534 33.6781 11.9846C33.5539 12.302 33.4849 12.647 33.4711 13.0196V27.9646C33.4711 28.1716 33.416 28.3372 33.3056 28.4614C33.209 28.5718 33.0848 28.627 32.933 28.627H30.3041C30.1661 28.627 30.035 28.5718 29.9108 28.4614C29.8004 28.3372 29.7452 28.1716 29.7452 27.9646V13.0196C29.7452 12.2192 29.897 11.4602 30.2006 10.7426C30.518 10.025 30.9527 9.39715 31.5047 8.85896C32.0705 8.30698 32.7329 7.87229 33.4918 7.55489C34.2646 7.2237 35.1064 7.05811 36.0172 7.05811C37.0384 7.05811 37.9491 7.2168 38.7495 7.53419C39.5499 7.85159 40.2261 8.27938 40.7781 8.81756C41.3301 9.35575 41.7509 9.99054 42.0407 10.7219C42.3305 11.4395 42.4754 12.2054 42.4754 13.0196V27.9853C42.4754 28.1923 42.4133 28.351 42.2891 28.4614C42.1787 28.5718 42.0545 28.627 41.9165 28.627H39.3084C39.1566 28.627 39.0255 28.5718 38.9151 28.4614C38.8047 28.351 38.7495 28.1923 38.7495 27.9853V13.1024Z" fill="white"/>
<path d="M14.7174 12.8954C14.7174 12.095 14.883 11.3429 15.2142 10.6391C15.5454 9.92154 15.9939 9.30055 16.5597 8.77616C17.1392 8.23798 17.8154 7.81709 18.5882 7.51349C19.361 7.2099 20.1821 7.05811 21.0515 7.05811C21.9346 7.05811 22.7488 7.2099 23.494 7.51349C24.2392 7.81709 24.8809 8.23798 25.419 8.77616C25.9572 9.30055 26.3712 9.92154 26.661 10.6391C26.9646 11.3429 27.1164 12.095 27.1164 12.8954V18.1116C27.1164 18.3048 27.0543 18.4635 26.9301 18.5877C26.8197 18.6981 26.6679 18.7533 26.4747 18.7533H18.4433V23.1623C18.4433 23.5073 18.5123 23.8385 18.6503 24.1559C18.7883 24.4733 18.9746 24.7493 19.2092 24.9839C19.4576 25.2185 19.7405 25.4117 20.0579 25.5635C20.3891 25.7015 20.7479 25.7705 21.1343 25.7705C21.5206 25.7705 21.8725 25.7015 22.1899 25.5635C22.5073 25.4117 22.7764 25.2116 22.9972 24.9632C23.218 24.7148 23.3905 24.4319 23.5147 24.1145C23.6389 23.7971 23.701 23.4659 23.701 23.1209V22.3757C23.701 22.2101 23.7493 22.0859 23.8459 22.0031C23.9563 21.9203 24.0874 21.8789 24.2392 21.8789H26.5989C26.7231 21.8789 26.8335 21.9134 26.9301 21.9824C27.0267 22.0376 27.075 22.1825 27.075 22.4171V23.1623C27.075 23.9765 26.9232 24.7355 26.6196 25.4393C26.3298 26.143 25.9227 26.764 25.3983 27.3022C24.874 27.8266 24.2392 28.2406 23.494 28.5442C22.7488 28.8478 21.9346 28.9996 21.0515 28.9996C20.1821 28.9996 19.361 28.8478 18.5882 28.5442C17.8154 28.2406 17.1392 27.8266 16.5597 27.3022C15.9939 26.764 15.5454 26.143 15.2142 25.4393C14.883 24.7355 14.7174 23.9765 14.7174 23.1623V12.8954ZM18.4433 16.1245H23.701V12.9161C23.701 12.5711 23.6389 12.2399 23.5147 11.9225C23.3905 11.5913 23.2111 11.3084 22.9765 11.0738C22.7557 10.8392 22.4866 10.6529 22.1692 10.5149C21.8518 10.3631 21.5068 10.2872 21.1343 10.2872C20.7479 10.2872 20.3891 10.3631 20.0579 10.5149C19.7405 10.6529 19.4576 10.8392 19.2092 11.0738C18.9746 11.3084 18.7883 11.5913 18.6503 11.9225C18.5123 12.2399 18.4433 12.5711 18.4433 12.9161V16.1245Z" fill="white"/>
<path d="M11.8815 0C12.1299 0 12.2955 0.0482988 12.3783 0.144896C12.4611 0.241494 12.5025 0.40709 12.5025 0.641684V2.38044C12.5025 2.46324 12.4887 2.55294 12.4611 2.64954C12.4473 2.73233 12.4335 2.78753 12.4197 2.81513L4.42969 24.2805L4.0985 24.9429H12.2127C12.3369 24.9429 12.4473 24.9912 12.5439 25.0878C12.6543 25.1706 12.7095 25.3224 12.7095 25.5432V28.0064C12.7095 28.2272 12.6543 28.3859 12.5439 28.4825C12.4473 28.5791 12.3369 28.6274 12.2127 28.6274H0.517488C0.365691 28.6274 0.241494 28.5791 0.144896 28.4825C0.0482988 28.3859 0 28.2272 0 28.0064V26.2263C0 26.1159 0.00689983 26.0193 0.0206995 25.9365C0.0482988 25.8537 0.082798 25.7571 0.124197 25.6467L8.01071 4.0571L8.2798 3.49822H0.80728C0.655484 3.49822 0.531287 3.44992 0.434689 3.35332C0.351891 3.24292 0.310492 3.08423 0.310492 2.87723V0.620985C0.310492 0.40019 0.358791 0.241494 0.455389 0.144896C0.551987 0.0482988 0.669284 0 0.80728 0H11.8815Z" fill="white"/>
<circle cx="57.6985" cy="3.51242" r="2.05295" fill="#0815F8"/>
</svg>
