<svg width="174" height="54" viewBox="0 0 174 54" fill="none" xmlns="http://www.w3.org/2000/svg">
<path d="M-0.00195312 12.829C-0.00195312 5.74373 5.74178 0 12.827 0H160.993C168.078 0 173.822 5.74373 173.822 12.829V40.6251C173.822 47.7103 168.078 53.4541 160.993 53.4541H12.827C5.74176 53.4541 -0.00195312 47.7103 -0.00195312 40.6251V12.829Z" fill="#040401"/>
<path fill-rule="evenodd" clip-rule="evenodd" d="M160.993 2.13816H12.827C6.92265 2.13816 2.13621 6.9246 2.13621 12.829V40.6251C2.13621 46.5295 6.92264 51.3159 12.827 51.3159H160.993C166.897 51.3159 171.684 46.5295 171.684 40.6251V12.829C171.684 6.9246 166.897 2.13816 160.993 2.13816ZM12.827 0C5.74178 0 -0.00195312 5.74373 -0.00195312 12.829V40.6251C-0.00195312 47.7103 5.74176 53.4541 12.827 53.4541H160.993C168.078 53.4541 173.822 47.7103 173.822 40.6251V12.829C173.822 5.74373 168.078 0 160.993 0H12.827Z" fill="#2D2D2D"/>
<path d="M43.8303 39.689C42.3826 41.0987 40.8019 40.8761 39.2803 40.2084C37.6701 39.5257 36.1929 39.4961 34.494 40.2084C32.3668 41.1284 31.2441 40.8613 29.9736 39.689C22.7646 32.2247 23.8283 20.8577 32.0123 20.4422C34.0065 20.5461 35.3952 21.5403 36.5622 21.6294C38.3054 21.2732 39.9747 20.2493 41.836 20.3828C44.0666 20.5609 45.7507 21.4513 46.8587 23.0539C42.2496 25.8289 43.3428 31.9279 47.5677 33.6345C46.7257 35.8604 45.6325 38.0715 43.8155 39.7038L43.8303 39.689ZM36.4145 20.3532C36.1929 17.044 38.8667 14.3135 41.9394 14.0464C42.3678 17.875 38.4826 20.7241 36.4145 20.3532Z" fill="white"/>
<path d="M65.6938 21.6212V13.9685H68.33C68.9251 13.9685 69.3793 14.005 69.6925 14.0781C70.131 14.179 70.5051 14.3617 70.8148 14.6262C71.2185 14.9673 71.5195 15.404 71.7179 15.9365C71.9197 16.4654 72.0206 17.071 72.0206 17.7531C72.0206 18.3343 71.9528 18.8493 71.8171 19.2982C71.6813 19.7472 71.5073 20.1195 71.295 20.4153C71.0828 20.7077 70.8496 20.9391 70.5955 21.1096C70.345 21.2767 70.0405 21.4037 69.682 21.4907C69.3271 21.5777 68.9181 21.6212 68.4553 21.6212H65.6938ZM66.7066 20.7181H68.3405C68.8451 20.7181 69.2401 20.6711 69.5254 20.5772C69.8143 20.4832 70.044 20.351 70.2145 20.1804C70.4546 19.9403 70.6408 19.6184 70.773 19.2147C70.9088 18.8075 70.9766 18.3151 70.9766 17.7374C70.9766 16.937 70.8444 16.3228 70.5799 15.8947C70.3189 15.4632 70.0004 15.1743 69.6246 15.0282C69.3532 14.9238 68.9164 14.8716 68.3143 14.8716H66.7066V20.7181Z" fill="white"/>
<path d="M73.5919 21.6212V13.9685H74.6046V21.6212H73.5919Z" fill="white"/>
<path d="M76.0506 19.1625L77.0059 19.079C77.0511 19.4618 77.1555 19.7767 77.3191 20.0238C77.4861 20.2674 77.7436 20.4658 78.0916 20.6189C78.4396 20.7686 78.8312 20.8434 79.2662 20.8434C79.6525 20.8434 79.9935 20.786 80.2893 20.6711C80.5851 20.5563 80.8044 20.3997 80.947 20.2013C81.0932 19.9995 81.1663 19.7802 81.1663 19.5436C81.1663 19.3035 81.0967 19.0946 80.9575 18.9172C80.8183 18.7362 80.5886 18.5848 80.2684 18.463C80.0631 18.383 79.609 18.2594 78.906 18.0924C78.203 17.9219 77.7106 17.7618 77.4287 17.6121C77.0633 17.4207 76.7901 17.1841 76.6091 16.9022C76.4316 16.6168 76.3429 16.2984 76.3429 15.9469C76.3429 15.5606 76.4525 15.2004 76.6718 14.8663C76.891 14.5288 77.2112 14.273 77.6323 14.099C78.0534 13.925 78.5214 13.838 79.0365 13.838C79.6037 13.838 80.1031 13.9302 80.5347 14.1147C80.9697 14.2956 81.3038 14.5636 81.5369 14.9185C81.7701 15.2735 81.8954 15.6755 81.9128 16.1244L80.9418 16.1975C80.8896 15.7137 80.7121 15.3483 80.4094 15.1013C80.1101 14.8542 79.6664 14.7306 79.0782 14.7306C78.4657 14.7306 78.0186 14.8437 77.7367 15.0699C77.4583 15.2927 77.3191 15.5624 77.3191 15.8791C77.3191 16.154 77.4182 16.3802 77.6166 16.5577C77.8115 16.7352 78.3196 16.9179 79.1409 17.1058C79.9657 17.2902 80.5312 17.452 80.8374 17.5913C81.2829 17.7966 81.6117 18.0576 81.824 18.3743C82.0363 18.6875 82.1425 19.0494 82.1425 19.4601C82.1425 19.8672 82.0259 20.2518 81.7927 20.6137C81.5595 20.9722 81.2237 21.2523 80.7852 21.4541C80.3502 21.6525 79.8595 21.7517 79.3131 21.7517C78.6206 21.7517 78.0394 21.6508 77.5696 21.4489C77.1033 21.2471 76.7361 20.9443 76.4682 20.5406C76.2037 20.1335 76.0645 19.6741 76.0506 19.1625Z" fill="white"/>
<path d="M83.5258 21.6212V13.9685H86.4125C86.9206 13.9685 87.3086 13.9928 87.5766 14.0416C87.9525 14.1042 88.2674 14.2243 88.5214 14.4018C88.7755 14.5758 88.9791 14.8211 89.1322 15.1378C89.2888 15.4545 89.3671 15.8025 89.3671 16.1818C89.3671 16.8326 89.16 17.3842 88.7459 17.8366C88.3318 18.2855 87.5836 18.51 86.5013 18.51H84.5385V21.6212H83.5258ZM84.5385 17.6069H86.5169C87.1712 17.6069 87.6358 17.4851 87.9107 17.2415C88.1856 16.9979 88.3231 16.6551 88.3231 16.2131C88.3231 15.893 88.2413 15.6198 88.0777 15.3936C87.9177 15.1639 87.7054 15.0125 87.4409 14.9394C87.2704 14.8942 86.9554 14.8716 86.496 14.8716H84.5385V17.6069Z" fill="white"/>
<path d="M90.3485 17.894C90.3485 16.6238 90.6895 15.6302 91.3716 14.9133C92.0537 14.193 92.9342 13.8328 94.013 13.8328C94.7195 13.8328 95.3563 14.0015 95.9236 14.3391C96.4908 14.6767 96.9224 15.1482 97.2182 15.7538C97.5175 16.3558 97.6671 17.0397 97.6671 17.8053C97.6671 18.5813 97.5105 19.2756 97.1973 19.8881C96.8841 20.5006 96.4404 20.9652 95.8662 21.2819C95.2919 21.5951 94.6725 21.7517 94.0078 21.7517C93.2874 21.7517 92.6436 21.5777 92.0763 21.2297C91.5091 20.8817 91.0793 20.4066 90.787 19.8046C90.4947 19.2025 90.3485 18.5657 90.3485 17.894ZM91.3925 17.9097C91.3925 18.8319 91.6396 19.5592 92.1338 20.0917C92.6314 20.6207 93.2544 20.8852 94.0026 20.8852C94.7647 20.8852 95.3911 20.6172 95.8818 20.0813C96.376 19.5453 96.6231 18.7849 96.6231 17.8001C96.6231 17.1771 96.5169 16.6342 96.3046 16.1714C96.0958 15.705 95.7879 15.3449 95.3807 15.0908C94.977 14.8333 94.5228 14.7045 94.0182 14.7045C93.3013 14.7045 92.6836 14.9516 92.1651 15.4458C91.65 15.9365 91.3925 16.7578 91.3925 17.9097Z" fill="white"/>
<path d="M98.9669 21.6212V13.9685H100.006L104.025 19.9768V13.9685H104.996V21.6212H103.957L99.9379 15.6076V21.6212H98.9669Z" fill="white"/>
<path d="M106.875 21.6212V13.9685H107.888V21.6212H106.875Z" fill="white"/>
<path d="M109.637 21.6212V13.9685H112.508C113.093 13.9685 113.561 14.0468 113.912 14.2034C114.267 14.3565 114.544 14.5949 114.742 14.9185C114.944 15.2387 115.045 15.5745 115.045 15.926C115.045 16.2532 114.956 16.5611 114.779 16.85C114.601 17.1388 114.333 17.372 113.975 17.5495C114.438 17.6852 114.793 17.9166 115.04 18.2438C115.29 18.5709 115.416 18.9572 115.416 19.4026C115.416 19.7611 115.339 20.0952 115.186 20.4049C115.036 20.7111 114.85 20.9478 114.627 21.1148C114.405 21.2819 114.124 21.4089 113.787 21.4959C113.453 21.5794 113.042 21.6212 112.555 21.6212H109.637ZM110.65 17.1841H112.304C112.753 17.1841 113.075 17.1545 113.27 17.0953C113.528 17.0188 113.721 16.8918 113.849 16.7143C113.982 16.5368 114.048 16.3141 114.048 16.0461C114.048 15.7921 113.987 15.5693 113.865 15.3779C113.743 15.183 113.569 15.0508 113.343 14.9812C113.117 14.9081 112.729 14.8716 112.179 14.8716H110.65V17.1841ZM110.65 20.7181H112.555C112.882 20.7181 113.112 20.7059 113.244 20.6816C113.477 20.6398 113.672 20.5702 113.829 20.4728C113.985 20.3753 114.114 20.2344 114.215 20.0499C114.316 19.862 114.366 19.6462 114.366 19.4026C114.366 19.1173 114.293 18.8702 114.147 18.6614C114.001 18.4491 113.797 18.3012 113.536 18.2177C113.279 18.1307 112.906 18.0872 112.419 18.0872H110.65V20.7181Z" fill="white"/>
<path d="M116.768 21.6212V13.9685H117.78V20.7181H121.549V21.6212H116.768Z" fill="white"/>
<path d="M122.781 21.6212V13.9685H128.314V14.8716H123.794V17.2154H128.027V18.1133H123.794V20.7181H128.492V21.6212H122.781Z" fill="white"/>
<path d="M132.887 21.6212V13.9685H138.421V14.8716H133.9V17.2154H138.133V18.1133H133.9V20.7181H138.598V21.6212H132.887Z" fill="white"/>
<path d="M139.987 21.6212V13.9685H141.025L145.045 19.9768V13.9685H146.016V21.6212H144.977L140.958 15.6076V21.6212H139.987Z" fill="white"/>
<path d="M76.3873 42.7202H73.866L72.8638 40.1128H68.2753L67.3278 42.7202H64.8691L69.3402 31.2412H71.791L76.3873 42.7202ZM72.1199 38.1787L70.5382 33.9191L68.9878 38.1787H72.1199Z" fill="white"/>
<path d="M77.5462 34.4046H79.5977V35.6261C79.8639 35.2085 80.2241 34.8692 80.6783 34.6081C81.1324 34.3471 81.6362 34.2166 82.1895 34.2166C83.1552 34.2166 83.9748 34.5951 84.6482 35.352C85.3216 36.1089 85.6583 37.1634 85.6583 38.5154C85.6583 39.904 85.319 40.9845 84.6404 41.7571C83.9617 42.5245 83.1396 42.9081 82.1739 42.9081C81.7145 42.9081 81.2969 42.8168 80.921 42.6341C80.5504 42.4514 80.1589 42.1382 79.7465 41.6945V45.8836H77.5462V34.4046ZM79.723 38.4214C79.723 39.3558 79.9083 40.0475 80.2789 40.4964C80.6496 40.9402 81.1011 41.162 81.6336 41.162C82.1451 41.162 82.5706 40.9584 82.9099 40.5513C83.2492 40.1389 83.4188 39.4655 83.4188 38.5311C83.4188 37.6593 83.244 37.012 82.8942 36.5892C82.5445 36.1664 82.1112 35.9549 81.5944 35.9549C81.0567 35.9549 80.6104 36.1637 80.2555 36.5814C79.9005 36.9937 79.723 37.6071 79.723 38.4214Z" fill="white"/>
<path d="M87.3496 34.4046H89.4011V35.6261C89.6673 35.2085 90.0275 34.8692 90.4817 34.6081C90.9358 34.3471 91.4396 34.2166 91.9929 34.2166C92.9586 34.2166 93.7782 34.5951 94.4516 35.352C95.125 36.1089 95.4617 37.1634 95.4617 38.5154C95.4617 39.904 95.1224 40.9845 94.4438 41.7571C93.7651 42.5245 92.943 42.9081 91.9772 42.9081C91.5179 42.9081 91.1003 42.8168 90.7244 42.6341C90.3538 42.4514 89.9623 42.1382 89.5499 41.6945V45.8836H87.3496V34.4046ZM89.5264 38.4214C89.5264 39.3558 89.7117 40.0475 90.0823 40.4964C90.453 40.9402 90.9045 41.162 91.437 41.162C91.9485 41.162 92.374 40.9584 92.7133 40.5513C93.0526 40.1389 93.2222 39.4655 93.2222 38.5311C93.2222 37.6593 93.0474 37.012 92.6976 36.5892C92.3479 36.1664 91.9146 35.9549 91.3978 35.9549C90.8601 35.9549 90.4138 36.1637 90.0588 36.5814C89.7039 36.9937 89.5264 37.6071 89.5264 38.4214Z" fill="white"/>
<path d="M97.2156 42.7202V31.2412H99.4159V42.7202H97.2156Z" fill="white"/>
<path d="M106.494 40.0736L108.687 40.4416C108.405 41.2455 107.959 41.8589 107.348 42.2817C106.742 42.6993 105.983 42.9081 105.069 42.9081C103.623 42.9081 102.553 42.4357 101.859 41.4909C101.311 40.734 101.037 39.7787 101.037 38.625C101.037 37.2469 101.397 36.169 102.117 35.3912C102.838 34.6081 103.749 34.2166 104.85 34.2166C106.087 34.2166 107.063 34.6264 107.779 35.446C108.494 36.2603 108.836 37.5105 108.804 39.1966H103.292C103.308 39.8491 103.485 40.3581 103.824 40.7235C104.164 41.0837 104.586 41.2638 105.093 41.2638C105.437 41.2638 105.727 41.1698 105.962 40.9819C106.197 40.794 106.374 40.4912 106.494 40.0736ZM106.62 37.8498C106.604 37.213 106.44 36.7301 106.126 36.4013C105.813 36.0672 105.432 35.9001 104.983 35.9001C104.503 35.9001 104.106 36.075 103.793 36.4247C103.48 36.7745 103.326 37.2495 103.331 37.8498H106.62Z" fill="white"/>
<path d="M114.497 38.9852L116.752 38.766C116.888 39.5229 117.162 40.0788 117.574 40.4338C117.992 40.7888 118.553 40.9663 119.258 40.9663C120.004 40.9663 120.565 40.8097 120.941 40.4964C121.322 40.178 121.513 39.8074 121.513 39.3846C121.513 39.1131 121.432 38.8834 121.27 38.6955C121.113 38.5024 120.837 38.3353 120.44 38.1944C120.169 38.1004 119.55 37.9334 118.584 37.6932C117.342 37.3853 116.47 37.0068 115.969 36.5579C115.264 35.9262 114.912 35.1563 114.912 34.248C114.912 33.6633 115.076 33.1178 115.405 32.6114C115.739 32.0999 116.217 31.711 116.838 31.4447C117.464 31.1785 118.219 31.0454 119.101 31.0454C120.542 31.0454 121.625 31.3612 122.351 31.9929C123.081 32.6245 123.465 33.4675 123.502 34.522L121.184 34.6238C121.085 34.0339 120.871 33.6111 120.542 33.3553C120.218 33.0943 119.73 32.9638 119.078 32.9638C118.404 32.9638 117.877 33.1021 117.496 33.3788C117.25 33.5563 117.128 33.7938 117.128 34.0914C117.128 34.3628 117.243 34.5951 117.472 34.7882C117.765 35.0336 118.475 35.2894 119.602 35.5556C120.73 35.8218 121.562 36.0985 122.1 36.3856C122.643 36.6675 123.066 37.0564 123.368 37.5523C123.676 38.043 123.83 38.6511 123.83 39.3767C123.83 40.0345 123.648 40.6504 123.282 41.2247C122.917 41.7989 122.4 42.2269 121.732 42.5088C121.064 42.7855 120.231 42.9238 119.234 42.9238C117.783 42.9238 116.668 42.5897 115.891 41.9215C115.113 41.2481 114.648 40.2694 114.497 38.9852Z" fill="white"/>
<path d="M129.578 34.4046V36.1585H128.074V39.5098C128.074 40.1885 128.087 40.5852 128.114 40.7C128.145 40.8097 128.21 40.901 128.309 40.9741C128.414 41.0472 128.539 41.0837 128.685 41.0837C128.889 41.0837 129.184 41.0132 129.57 40.8723L129.758 42.5793C129.246 42.7985 128.667 42.9081 128.02 42.9081C127.623 42.9081 127.265 42.8429 126.947 42.7124C126.628 42.5767 126.394 42.4044 126.242 42.1956C126.096 41.9816 125.994 41.6945 125.937 41.3343C125.89 41.0785 125.866 40.5617 125.866 39.7839V36.1585H124.856V34.4046H125.866V32.7524L128.074 31.4682V34.4046H129.578Z" fill="white"/>
<path d="M130.596 38.4449C130.596 37.7141 130.776 37.0068 131.136 36.323C131.496 35.6391 132.005 35.1171 132.663 34.7569C133.326 34.3967 134.064 34.2166 134.879 34.2166C136.137 34.2166 137.168 34.6264 137.972 35.446C138.776 36.2603 139.178 37.2913 139.178 38.5389C139.178 39.7969 138.77 40.841 137.956 41.671C137.147 42.4958 136.126 42.9081 134.894 42.9081C134.132 42.9081 133.404 42.7359 132.71 42.3913C132.021 42.0468 131.496 41.5431 131.136 40.8801C130.776 40.2119 130.596 39.4002 130.596 38.4449ZM132.851 38.5624C132.851 39.3872 133.047 40.0188 133.438 40.4573C133.83 40.8958 134.312 41.115 134.887 41.115C135.461 41.115 135.941 40.8958 136.327 40.4573C136.719 40.0188 136.915 39.3819 136.915 38.5467C136.915 37.7324 136.719 37.106 136.327 36.6675C135.941 36.229 135.461 36.0097 134.887 36.0097C134.312 36.0097 133.83 36.229 133.438 36.6675C133.047 37.106 132.851 37.7376 132.851 38.5624Z" fill="white"/>
<path d="M143.014 42.7202H140.814V34.4046H142.858V35.5869C143.208 35.0284 143.521 34.6603 143.797 34.4829C144.079 34.3054 144.398 34.2166 144.753 34.2166C145.254 34.2166 145.737 34.355 146.201 34.6316L145.52 36.55C145.149 36.3099 144.805 36.1898 144.486 36.1898C144.178 36.1898 143.917 36.276 143.703 36.4482C143.489 36.6153 143.32 36.9207 143.194 37.3644C143.074 37.8081 143.014 38.7373 143.014 40.1519V42.7202Z" fill="white"/>
<path d="M151.972 40.0736L154.165 40.4416C153.883 41.2455 153.436 41.8589 152.826 42.2817C152.22 42.6993 151.461 42.9081 150.547 42.9081C149.101 42.9081 148.031 42.4357 147.337 41.4909C146.789 40.734 146.514 39.7787 146.514 38.625C146.514 37.2469 146.875 36.169 147.595 35.3912C148.315 34.6081 149.226 34.2166 150.328 34.2166C151.565 34.2166 152.541 34.6264 153.256 35.446C153.971 36.2603 154.313 37.5105 154.282 39.1966H148.77C148.785 39.8491 148.963 40.3581 149.302 40.7235C149.641 41.0837 150.064 41.2638 150.571 41.2638C150.915 41.2638 151.205 41.1698 151.44 40.9819C151.675 40.794 151.852 40.4912 151.972 40.0736ZM152.097 37.8498C152.082 37.213 151.917 36.7301 151.604 36.4013C151.291 36.0672 150.91 35.9001 150.461 35.9001C149.981 35.9001 149.584 36.075 149.271 36.4247C148.958 36.7745 148.804 37.2495 148.809 37.8498H152.097Z" fill="white"/>
</svg>
