<svg xmlns="http://www.w3.org/2000/svg" width="32" height="32" viewBox="0 0 32 32" fill="none">
  <g clip-path="url(#clip0_796_245)">
    <path fill-rule="evenodd" clip-rule="evenodd" d="M14.3444 13.7192C14.0931 14.1695 13.6236 14.4724 13.086 14.4724C12.2834 14.4724 11.6328 13.7974 11.6328 12.9647C11.6328 12.132 12.2834 11.457 13.086 11.457C13.6041 11.457 14.0589 11.7383 14.3162 12.1618C14.7497 12.7736 15.3043 12.846 15.3043 12.846L15.3043 12.8464C15.3575 12.8575 15.3976 12.9063 15.3976 12.9648C15.3976 13.0315 15.3454 13.0856 15.2811 13.0856C15.2736 13.0856 15.2663 13.0848 15.2592 13.0834C15.1072 13.1025 14.679 13.2018 14.3444 13.7192Z" fill="#121216"/>
    <path fill-rule="evenodd" clip-rule="evenodd" d="M16.6678 17.1C16.9192 16.6497 17.3886 16.3469 17.9262 16.3469C18.7288 16.3469 19.3794 17.0219 19.3794 17.8545C19.3794 18.6872 18.7288 19.3622 17.9262 19.3622C17.4095 19.3622 16.9558 19.0824 16.6981 18.6609C16.2642 18.0461 15.7077 17.9735 15.7077 17.9735L15.7077 17.973C15.6545 17.9618 15.6145 17.913 15.6145 17.8546C15.6145 17.7878 15.6666 17.7338 15.7309 17.7338C15.7386 17.7338 15.746 17.7345 15.7532 17.736C15.9057 17.7168 16.3335 17.6171 16.6678 17.1Z" fill="#121216"/>
    <path fill-rule="evenodd" clip-rule="evenodd" d="M16.3798 13.2186C16.3036 12.7532 16.4386 12.2579 16.7848 11.8987C17.3523 11.31 18.2724 11.31 18.84 11.8987C19.4075 12.4875 19.4075 13.4421 18.84 14.0309C18.4949 14.3889 18.0194 14.5292 17.5721 14.4518C17.1453 14.4776 16.3841 14.6934 15.6992 15.434C14.865 16.3361 14.7158 16.7102 14.6322 16.9199C14.6155 16.962 14.6013 16.9974 14.5849 17.0292C14.5435 17.1088 14.5133 17.312 14.4925 17.5281C14.5958 18.014 14.4654 18.5427 14.1011 18.9206C13.5336 19.5094 12.6135 19.5094 12.046 18.9206C11.4785 18.3318 11.4785 17.3772 12.046 16.7884C12.4003 16.4209 12.8919 16.2828 13.3495 16.3741C13.7397 16.376 14.4978 16.1371 15.3606 15.1414C16.0962 14.2924 16.3369 13.622 16.3798 13.2186Z" fill="#121216"/>
    <path fill-rule="evenodd" clip-rule="evenodd" d="M9.48605 26.9646C12.5714 27.1039 15.8867 24.5806 19.6013 22.6895C23.3159 20.7984 26.6792 19.9216 28.3819 17.3448C30.0946 14.7528 30.532 12.2468 29.566 10.3494C28.6 8.4519 26.3163 7.33125 23.2127 7.1912C20.1274 7.05198 13.2006 5.30012 9.48604 7.19121C5.77145 9.0823 6.0195 14.2343 4.31687 16.811C2.60413 19.4031 2.16676 21.909 3.13276 23.8065C4.09876 25.7039 6.38241 26.8246 9.48605 26.9646ZM2.65382 24.0503C4.83816 28.3409 12.7406 28.6975 20.3045 24.8467C27.8683 20.996 32.2293 14.3961 30.0449 10.1055C27.8606 5.81494 16.8061 2.86153 9.24222 6.71227C1.67837 10.563 0.469487 19.7597 2.65382 24.0503Z" fill="url(#paint0_linear_796_245)"/>
  </g>
  <defs>
    <linearGradient id="paint0_linear_796_245" x1="30.0449" y1="10.1055" x2="8.8756" y2="27.4758" gradientUnits="userSpaceOnUse">
      <stop stop-color="#0815F8"/>
      <stop offset="1" stop-color="#5D65FF"/>
    </linearGradient>
    <clipPath id="clip0_796_245">
      <rect width="32" height="32" fill="white"/>
    </clipPath>
  </defs>
</svg>